Biomarkers of ASD
…
To begin with the preprocessing of the data, we first look at the raw proteins to see how they are distributed. From observing the distribution of a sample of the proteins from the raw file, it is clear that many of them have skewed distributions. These skewed distributions could be due to high variability in the protein levels which leads to outliers that are affecting our data and predictions. To improve our model and predictions, we can log transform the proteins to help normalize the distributions. By doing this, it helps to improve our models performance since machine learning techniques like random forest will give you better predictions when the input data is more normally distributed. As we can observe from the difference in the raw and the log transformed histograms for this sample of proteins, the transformation helps to normalize the distributions of the raw proteins in our dataset.

Read in data

# A tibble: 91 × 4
   group  ados biomarker   count
   <chr> <dbl> <chr>       <int>
 1 ASD       7 LBP             3
 2 ASD      12 IL-12 RB2       3
 3 ASD      22 GM-CSF          3
 4 TD       NA AFP             3
 5 TD       NA AMNLS           4
 6 TD       NA AMPK a2b2g1     3
 7 TD       NA ANK2            3
 8 TD       NA B7-H1           4
 9 TD       NA BAD             3
10 TD       NA BMPER           3
# ℹ 81 more rows
…
